TGL_TRANSAKSI;PRODUK_BILLER;TERMINAL_ID;NAMA_PP;IDPEL;BLTH;REFNUM_JPA;TRAN_AMOUNT;ADMIN_BANK;LEMBAR;TRX;STAN
2019-11-04;PDAM Palyja ;54EDGN01;PT Esta Digital Niaga;000546416      ;201810201810;JPAPDAM1;10000;2000;1;1;470283
2019-11-04;PDAM Palyja ;54EDGN01;PT Esta Digital Niaga;000546416      ;201810201810;JPAPDAM2;10000;2000;1;1;470283
2019-11-04;PDAM Palyja ;54EDGN01;PT Esta Digital Niaga;000546416      ;201810201810;JPAPDAM3;10000;2000;1;1;470283
2019-11-04;PDAM Palyja ;54EDGN01;PT Esta Digital Niaga;000546416      ;201810201810;JPAPDAM4;15000;2500;1;1;470283
2019-11-04;PDAM Palyja ;54EDGN01;PT Esta Digital Niaga;000546416      ;201810201810;JPAPDAM7;10000;2000;1;1;470283
2019-11-05;PDAM Palyja ;54EDGN01;PT Esta Digital Niaga;000546416      ;201810201810;JPAPDAM8;10000;2000;1;1;470283