TGL_TRANSAKSI;TERMINAL_ID;NAMA_PP;NOTELP;REFNUM_JPA;TRAN_AMOUNT;ADMIN_BANK;INFO;OPERATOR;STAN
2019-11-04;54EDGN01;PT Esta Digital Niaga;089622262538  ;JPAPULPRE1;10000;0;Three 20K;Three;110942
2019-11-04;54EDGN01;PT Esta Digital Niaga;08987654321  ;JPAPULPRE2;10000;0;Three 20K;Three;123456
2019-11-04;54EDGN01;PT Esta Digital Niaga;089622262538  ;JPAPULPRE3;10000;0;Three 20K;Three;110942
2019-11-04;54EDGN01;PT Esta Digital Niaga;089622262538  ;JPAPULPRE4;15000;0;Three 20K;Three;110942
2019-11-04;54EDGN01;PT Esta Digital Niaga;089622262538  ;JPAPULPRE7;10000;0;Three 20K;Three;110942
2019-11-05;54EDGN01;PT Esta Digital Niaga;089622262538  ;JPAPULPRE8;10000;0;Three 20K;Three;110942